…
It seems that the number of IT contracts by Departments by year followed a pattern between the years. The Ministry of Education - MEC and Ministry of Defense - MD are the outliers on IT contracts numbers. On the other Departments its possible to see some minor changes across the years as well.

The high number of MEC and MD contracts is unusual, since each contract should represent a product or service. It does not seems necessary nor efficient to have this number of contracts. One hypothesis to the high count is that the Departments can have management units underneath it. For example, all the Federal Universities in Brazil are considered management units under MEC, and all the military units are beneath MD. Also, each management unit can have and manage its own IT contracts.

Lets plot a table with management units count by Department to check it out.

## # A tibble: 46 x 2
##                                  orgao.superior total_ug
##                                           <chr>    <int>
##  1                       MINISTERIO DA EDUCACAO      896
##  2                         MINISTERIO DA DEFESA      758
##  3             MINISTERIO DA PREVIDENCIA SOCIAL      198
##  4                          COMANDO DO EXERCITO      153
##  5 MINIST. DA AGRICUL.,PECUARIA E ABASTECIMENTO      141
##  6                        MINISTERIO DA FAZENDA      141
##  7                        MINISTERIO DA JUSTICA      137
##  8                          MINISTERIO DA SAUDE      122
##  9           MINISTERIO DAS RELACOES EXTERIORES      105
## 10  MINISTERIO DO DESENVOLVIM. SOCIAL E AGRARIO      100
## # ... with 36 more rows
…
